[
    {
        "name": "Manufacturing",
        "subIndustry": [
            {
                "name": "Alcohol & Cigarettes"
            },
            {
                "name": "Fashion"
            },
            {
                "name": "Furniture & Home Deco"
            },
            {
                "name": "Commodities"
            }
        ]
    },
    {
        "name": "Retail Goods",
        "subIndustry": [
            {
                "name": "Groceries & Consumables"
            },
            {
                "name": "Household Appliances & Electronics"
            },
            {
                "name": "Pharma & Medical"
            },
            {
                "name": "Others"
            }
        ]
    },
    {
        "name": "Wholesale & Distribution",
        "subIndustry": [
            {
                "name": "Light & Heavy Equipment"
            },
            {
                "name": "Household Appliances & Electronics"
            },
            {
                "name": "Pharma & Medical"
            },
            {
                "name": "Toys, Kids & Babies"
            }
        ]
    },
    {
        "name": "Heavy Services",
        "subIndustry": [
            {
                "name": "Energy"
            },
            {
                "name": "Utilities"
            },
            {
                "name": "Construction"
            }
        ]
    },
    {
        "name": "Professional Services",
        "subIndustry": [
            {
                "name": "Business, Financial, IT & Legal Consulting"
            },
            {
                "name": "Logistics, Warehousing & Freight"
            },
            {
                "name": "Property Management & Brokerage"
            }
        ]
    },
    {
        "name": "Other Services",
        "subIndustry": [
            {
                "name": "Hotels"
            },
            {
                "name": "Telecom"
            },
            {
                "name": "Events"
            }
        ]
    }
]